%YAML 1.1
%TAG !u! tag:unity3d.com,2011:
--- !u!114 &11400000
MonoBehaviour:
  m_ObjectHideFlags: 0
  m_CorrespondingSourceObject: {fileID: 0}
  m_PrefabInstance: {fileID: 0}
  m_PrefabAsset: {fileID: 0}
  m_GameObject: {fileID: 0}
  m_Enabled: 1
  m_EditorHideFlags: 0
  m_Script: {fileID: 11500000, guid: 276573ee3e094f14d8a00a0c3fed1bbd, type: 3}
  m_Name: ha
  m_EditorClassIdentifier: 
  symbol: {fileID: 8388126078031750972, guid: 5e22d4c6fede2d443ba79e4e5c01a64f, type: 3}
  answerExpected: ha
  pronunciation: {fileID: 0}
